module parserNews

go 1.23

require (
	github.com/xuri/excelize/v2 v2.8.0
	golang.org/x/net v0.20.0
)

require (
	github.com/gopherjs/gopherjs v0.0.0-20190411002643-bd77b112433e // indirect
	github.com/mohae/deepcopy v0.0.0-20170929034955-c48cc78d4826 // indirect
	github.com/richardlehane/mscfb v1.0.4 // indirect
	github.com/richardlehane/msoleps v1.0.3 // indirect
	github.com/therecipe/qt v0.0.0-20200904063919-c0c124a5770d // indirect
	github.com/xuri/efp v0.0.0-20230802181842-ad255f2331ca // indirect
	github.com/xuri/nfp v0.0.0-20230819163627-dc951e3ffe1a // indirect
	golang.org/x/crypto v0.18.0 // indirect
	golang.org/x/text v0.14.0 // indirect
)
